vbfelix - An intro to chi-square test
…
#Raw data simulation
data <-
  expand_grid(
    race  = c(1:3), 
    frame = factor(c("S","M","L"))
  ) %>% 
  arrange(race,frame) %>% 
  mutate(n  = c(10,20,30,20,30,50,10,20,10)) %>% 
  uncount(n)

data

# A tibble: 200 x 2
    race frame
   <int> <fct>
 1     1 L    
 2     1 L    
 3     1 L    
 4     1 L    
 5     1 L    
 6     1 L    
 7     1 L    
 8     1 L    
 9     1 L    
10     1 L    
# ... with 190 more rows
…
